﻿Log file open, 03/18/21 14:16:44
LogInit: LLM is enabled
LogInit: LLM CsvWriter: off TraceWriter: off
LogInit: Display: Running engine for game: Snake_Game
LogPlatformFile: Not using cached read wrapper
LogTaskGraph: Started task graph with 5 named threads and 47 total threads with 3 sets of task threads.
LogStats: Stats thread started at 0.258486
LogD3D11RHI: Loaded GFSDK_Aftermath_Lib.x64.dll
LogICUInternationalization: ICU TimeZone Detection - Raw Offset: +3:00, Platform Override: ''
LogPluginManager: Mounting plugin XGEController
LogPluginManager: Mounting plugin MeshPainting
LogPluginManager: Mounting plugin Paper2D
LogPluginManager: Mounting plugin AISupport
LogPluginManager: Mounting plugin EnvironmentQueryEditor
LogPluginManager: Mounting plugin LightPropagationVolume
LogPluginManager: Mounting plugin AnimationSharing
LogPluginManager: Mounting plugin CodeLiteSourceCodeAccess
LogPluginManager: Mounting plugin CLionSourceCodeAccess
LogPluginManager: Mounting plugin KDevelopSourceCodeAccess
LogPluginManager: Mounting plugin GitSourceControl
LogPluginManager: Mounting plugin NullSourceCodeAccess
LogPluginManager: Mounting plugin CameraShakePreviewer
LogPluginManager: Mounting plugin PluginUtils
LogPluginManager: Mounting plugin PropertyAccessNode
LogPluginManager: Mounting plugin PerforceSourceControl
LogPluginManager: Mounting plugin PlasticSourceControl
LogPluginManager: Mounting plugin RiderSourceCodeAccess
LogPluginManager: Mounting plugin SubversionSourceControl
LogPluginManager: Mounting plugin UObjectPlugin
LogPluginManager: Mounting plugin VisualStudioCodeSourceCodeAccess
LogPluginManager: Mounting plugin VisualStudioSourceCodeAccess
LogPluginManager: Mounting plugin XCodeSourceCodeAccess
LogPluginManager: Mounting plugin DatasmithContent
LogPluginManager: Mounting plugin AssetManagerEditor
LogPluginManager: Mounting plugin VariantManagerContent
LogPluginManager: Mounting plugin CryptoKeys
LogPluginManager: Mounting plugin DataValidation
LogPluginManager: Mounting plugin FacialAnimation
LogPluginManager: Mounting plugin GameplayTagsEditor
LogPluginManager: Mounting plugin GeometryMode
LogPluginManager: Mounting plugin MacGraphicsSwitching
LogPluginManager: Mounting plugin MaterialAnalyzer
LogPluginManager: Mounting plugin MobileLauncherProfileWizard
LogPluginManager: Mounting plugin PluginBrowser
LogPluginManager: Mounting plugin SpeedTreeImporter
LogPluginManager: Mounting plugin Niagara
LogPluginManager: Mounting plugin AndroidMedia
LogPluginManager: Mounting plugin CurveEditorTools
LogPluginManager: Mounting plugin ActorSequence
LogPluginManager: Mounting plugin LuminPlatformFeatures
LogPluginManager: Mounting plugin TcpMessaging
LogPluginManager: Mounting plugin UdpMessaging
LogPluginManager: Mounting plugin LauncherChunkInstaller
LogPluginManager: Mounting plugin AvfMedia
LogPluginManager: Mounting plugin LevelSequenceEditor
LogPluginManager: Mounting plugin MatineeToLevelSequence
LogPluginManager: Mounting plugin ImgMedia
LogPluginManager: Mounting plugin OnlineSubsystem
LogPluginManager: Mounting plugin MediaCompositing
LogPluginManager: Mounting plugin MediaPlayerEditor
LogPluginManager: Mounting plugin OnlineSubsystemNull
LogPluginManager: Mounting plugin OnlineSubsystemUtils
LogPluginManager: Mounting plugin TemplateSequence
LogPluginManager: Mounting plugin ActorLayerUtilities
LogPluginManager: Mounting plugin AlembicImporter
LogPluginManager: Mounting plugin MagicLeap
LogPluginManager: Mounting plugin WebMMedia
LogPluginManager: Mounting plugin AutomationUtils
LogPluginManager: Mounting plugin WmfMedia
LogPluginManager: Mounting plugin BackChannel
LogPluginManager: Mounting plugin ScreenshotTools
LogPluginManager: Mounting plugin ChaosCloth
LogPluginManager: Mounting plugin ChaosClothEditor
LogPluginManager: Mounting plugin ChaosNiagara
LogPluginManager: Mounting plugin ChaosEditor
LogPluginManager: Mounting plugin ChaosSolverPlugin
LogPluginManager: Mounting plugin CharacterAI
LogPluginManager: Mounting plugin AndroidDeviceProfileSelector
LogPluginManager: Mounting plugin AndroidPermission
LogPluginManager: Mounting plugin AndroidMoviePlayer
LogPluginManager: Mounting plugin AppleImageUtils
LogPluginManager: Mounting plugin AppleMoviePlayer
LogPluginManager: Mounting plugin ArchVisCharacter
LogPluginManager: Mounting plugin AssetTags
LogPluginManager: Mounting plugin AudioCapture
LogPluginManager: Mounting plugin MagicLeapLightEstimation
LogPluginManager: Mounting plugin GeometryCache
LogPluginManager: Mounting plugin AudioSynesthesia
LogPluginManager: Mounting plugin MagicLeapMedia
LogPluginManager: Mounting plugin CableComponent
LogPluginManager: Mounting plugin ChunkDownloader
LogPluginManager: Mounting plugin CustomMeshComponent
LogPluginManager: Mounting plugin EditableMesh
LogPluginManager: Mounting plugin GeometryProcessing
LogPluginManager: Mounting plugin MagicLeapPassableWorld
LogPluginManager: Mounting plugin ExampleDeviceProfileSelector
LogPluginManager: Mounting plugin GoogleCloudMessaging
LogPluginManager: Mounting plugin GooglePAD
LogPluginManager: Mounting plugin MLSDK
LogPluginManager: Mounting plugin MotoSynth
LogPluginManager: Mounting plugin PlatformCrypto
LogPluginManager: Mounting plugin ProxyLODPlugin
LogPluginManager: Mounting plugin SkeletalReduction
LogPluginManager: Mounting plugin PlanarCut
LogPluginManager: Mounting plugin GeometryCollectionPlugin
LogPluginManager: Mounting plugin IOSDeviceProfileSelector
LogPluginManager: Mounting plugin LinuxDeviceProfileSelector
LogPluginManager: Mounting plugin LocationServicesBPLibrary
LogPluginManager: Mounting plugin MobilePatchingUtils
LogPluginManager: Mounting plugin PostSplashScreen
LogPluginManager: Mounting plugin PhysXVehicles
LogPluginManager: Mounting plugin ProceduralMeshComponent
LogPluginManager: Mounting plugin PropertyAccessEditor
LogPluginManager: Mounting plugin RuntimePhysXCooking
LogPluginManager: Mounting plugin SignificanceManager
LogPluginManager: Mounting plugin SoundFields
LogPluginManager: Mounting plugin Synthesis
LogPluginManager: Mounting plugin WebMMoviePlayer
LogPluginManager: Mounting plugin WindowsMoviePlayer
LogPluginManager: Mounting plugin ContentBrowserClassDataSource
LogPluginManager: Mounting plugin ContentBrowserAssetDataSource
LogPluginManager: Mounting plugin OnlineSubsystemGooglePlay
LogPluginManager: Mounting plugin OnlineSubsystemIOS
LogPluginManager: Mounting plugin OculusVR
LogPluginManager: Mounting plugin SteamVR
LogXGEController: Cleaning working directory: C:/Users/1/AppData/Local/Temp/UnrealXGEWorkingDir/
LogXGEController: Cannot use XGE Controller as Incredibuild is not installed on this machine.
LogInit: Using libcurl 7.55.1-DEV
LogInit:  - built for x86_64-pc-win32
LogInit:  - supports SSL with OpenSSL/1.1.1
LogInit:  - supports HTTP deflate (compression) using libz 1.2.8
LogInit:  - other features:
LogInit:      CURL_VERSION_SSL
LogInit:      CURL_VERSION_LIBZ
LogInit:      CURL_VERSION_IPV6
LogInit:      CURL_VERSION_ASYNCHDNS
LogInit:      CURL_VERSION_LARGEFILE
LogInit:      CURL_VERSION_IDN
LogInit:  CurlRequestOptions (configurable via config and command line):
LogInit:  - bVerifyPeer = true  - Libcurl will verify peer certificate
LogInit:  - bUseHttpProxy = false  - Libcurl will NOT use HTTP proxy
LogInit:  - bDontReuseConnections = false  - Libcurl will reuse connections
LogInit:  - MaxHostConnections = 16  - Libcurl will limit the number of connections to a host
LogInit:  - LocalHostAddr = Default
LogInit:  - BufferSize = 65536
LogOnline: OSS: Creating online subsystem instance for: NULL
LogInit: WinSock: version 1.1 (2.2), MaxSocks=32767, MaxUdp=65467
LogOnline: OSS: TryLoadSubsystemAndSetDefault: Loaded subsystem for module [NULL]
LogInit: Build: ++UE4+Release-4.26-CL-15228867
LogInit: Engine Version: 4.26.1-15228867+++UE4+Release-4.26
LogInit: Compatible Engine Version: 4.26.0-14830424+++UE4+Release-4.26
LogInit: Net CL: 14830424
LogInit: OS: Windows 10 (Release 2004) (), CPU: Intel(R) Core(TM) i7-10700KF CPU @ 3.80GHz, GPU: NVIDIA GeForce RTX 3060 Ti
LogInit: Compiled (64-bit): Jan 28 2021 07:07:34
LogInit: Compiled with Visual C++: 19.24.28315.00
LogInit: Build Configuration: Development
LogInit: Branch Name: ++UE4+Release-4.26
LogInit: Command Line:  -skipcompile
LogInit: Base Directory: C:/Program Files/Epic Games/UE_4.26/Engine/Binaries/Win64/
LogInit: Allocator: TBB
LogInit: Installed Engine Build: 1
LogDevObjectVersion: Number of dev versions registered: 29
LogDevObjectVersion:   Dev-Blueprints (B0D832E4-1F89-4F0D-ACCF-7EB736FD4AA2): 10
LogDevObjectVersion:   Dev-Build (E1C64328-A22C-4D53-A36C-8E866417BD8C): 0
LogDevObjectVersion:   Dev-Core (375EC13C-06E4-48FB-B500-84F0262A717E): 4
LogDevObjectVersion:   Dev-Editor (E4B068ED-F494-42E9-A231-DA0B2E46BB41): 40
LogDevObjectVersion:   Dev-Framework (CFFC743F-43B0-4480-9391-14DF171D2073): 37
LogDevObjectVersion:   Dev-Mobile (B02B49B5-BB20-44E9-A304-32B752E40360): 3
LogDevObjectVersion:   Dev-Networking (A4E4105C-59A1-49B5-A7C5-40C4547EDFEE): 0
LogDevObjectVersion:   Dev-Online (39C831C9-5AE6-47DC-9A44-9C173E1C8E7C): 0
LogDevObjectVersion:   Dev-Physics (78F01B33-EBEA-4F98-B9B4-84EACCB95AA2): 4
LogDevObjectVersion:   Dev-Platform (6631380F-2D4D-43E0-8009-CF276956A95A): 0
LogDevObjectVersion:   Dev-Rendering (12F88B9F-8875-4AFC-A67C-D90C383ABD29): 44
LogDevObjectVersion:   Dev-Sequencer (7B5AE74C-D270-4C10-A958-57980B212A5A): 12
LogDevObjectVersion:   Dev-VR (D7296918-1DD6-4BDD-9DE2-64A83CC13884): 3
LogDevObjectVersion:   Dev-LoadTimes (C2A15278-BFE7-4AFE-6C17-90FF531DF755): 1
LogDevObjectVersion:   Private-Geometry (6EACA3D4-40EC-4CC1-B786-8BED09428FC5): 3
LogDevObjectVersion:   Dev-AnimPhys (29E575DD-E0A3-4627-9D10-D276232CDCEA): 17
LogDevObjectVersion:   Dev-Anim (AF43A65D-7FD3-4947-9873-3E8ED9C1BB05): 15
LogDevObjectVersion:   Dev-ReflectionCapture (6B266CEC-1EC7-4B8F-A30B-E4D90942FC07): 1
LogDevObjectVersion:   Dev-Automation (0DF73D61-A23F-47EA-B727-89E90C41499A): 1
LogDevObjectVersion:   FortniteMain (601D1886-AC64-4F84-AA16-D3DE0DEAC7D6): 43
LogDevObjectVersion:   FortniteRelease (E7086368-6B23-4C58-8439-1B7016265E91): 1
LogDevObjectVersion:   Dev-Enterprise (9DFFBCD6-494F-0158-E221-12823C92A888): 10
LogDevObjectVersion:   Dev-Niagara (F2AED0AC-9AFE-416F-8664-AA7FFA26D6FC): 1
LogDevObjectVersion:   Dev-Destruction (174F1F0B-B4C6-45A5-B13F-2EE8D0FB917D): 10
LogDevObjectVersion:   Dev-Physics-Ext (35F94A83-E258-406C-A318-09F59610247C): 40
LogDevObjectVersion:   Dev-PhysicsMaterial-Chaos (B68FC16E-8B1B-42E2-B453-215C058844FE): 1
LogDevObjectVersion:   Dev-CineCamera (B2E18506-4273-CFC2-A54E-F4BB758BBA07): 1
LogDevObjectVersion:   Dev-VirtualProduction (64F58936-FD1B-42BA-BA96-7289D5D0FA4E): 1
LogDevObjectVersion:   Dev-MediaFramework (6F0ED827-A609-4895-9C91-998D90180EA4): 2
LogInit: Presizing for max 25165824 objects, including 0 objects not considered by GC, pre-allocating 0 bytes for permanent pool.
LogConfig: Applying CVar settings from Section [/Script/Engine.StreamingSettings] File [C:/Users/1/Documents/Unreal Projects/Snake_Game/Saved/Config/Windows/Engine.ini]
LogConfig: Setting CVar [[s.MinBulkDataSizeForAsyncLoading:131072]]
LogConfig: Setting CVar [[s.AsyncLoadingThreadEnabled:0]]
LogConfig: Setting CVar [[s.EventDrivenLoaderEnabled:1]]
LogConfig: Setting CVar [[s.WarnIfTimeLimitExceeded:0]]
LogConfig: Setting CVar [[s.TimeLimitExceededMultiplier:1.5]]
LogConfig: Setting CVar [[s.TimeLimitExceededMinTime:0.005]]
LogConfig: Setting CVar [[s.UseBackgroundLevelStreaming:1]]
LogConfig: Setting CVar [[s.PriorityAsyncLoadingExtraTime:15.0]]
LogConfig: Setting CVar [[s.LevelStreamingActorsUpdateTimeLimit:5.0]]
LogConfig: Setting CVar [[s.PriorityLevelStreamingActorsUpdateExtraTime:5.0]]
LogConfig: Setting CVar [[s.LevelStreamingComponentsRegistrationGranularity:10]]
LogConfig: Setting CVar [[s.UnregisterComponentsTimeLimit:1.0]]
LogConfig: Setting CVar [[s.LevelStreamingComponentsUnregistrationGranularity:5]]
LogConfig: Setting CVar [[s.FlushStreamingOnExit:1]]
LogInit: Object subsystem initialized
LogConfig: Setting CVar [[con.DebugEarlyDefault:1]]
LogConfig: Setting CVar [[r.setres:1280x720]]
[2021.03.18-11.16.44:933][  0]LogConfig: Setting CVar [[r.VSync:0]]
[2021.03.18-11.16.44:933][  0]LogConfig: Setting CVar [[r.RHICmdBypass:0]]
[2021.03.18-11.16.44:933][  0]LogConfig: Applying CVar settings from Section [/Script/Engine.RendererSettings] File [C:/Users/1/Documents/Unreal Projects/Snake_Game/Saved/Config/Windows/Engine.ini]
[2021.03.18-11.16.44:933][  0]LogConfig: Setting CVar [[r.GPUCrashDebugging:0]]
[2021.03.18-11.16.44:933][  0]LogConfig: Applying CVar settings from Section [/Script/Engine.RendererOverrideSettings] File [C:/Users/1/Documents/Unreal Projects/Snake_Game/Saved/Config/Windows/Engine.ini]
[2021.03.18-11.16.44:933][  0]LogConfig: Applying CVar settings from Section [/Script/Engine.StreamingSettings] File [C:/Users/1/Documents/Unreal Projects/Snake_Game/Saved/Config/Windows/Engine.ini]
[2021.03.18-11.16.44:933][  0]LogConfig: Setting CVar [[s.MinBulkDataSizeForAsyncLoading:131072]]
[2021.03.18-11.16.44:933][  0]LogConfig: Setting CVar [[s.AsyncLoadingThreadEnabled:0]]
[2021.03.18-11.16.44:933][  0]LogConfig: Setting CVar [[s.EventDrivenLoaderEnabled:1]]
[2021.03.18-11.16.44:933][  0]LogConfig: Setting CVar [[s.WarnIfTimeLimitExceeded:0]]
[2021.03.18-11.16.44:933][  0]LogConfig: Setting CVar [[s.TimeLimitExceededMultiplier:1.5]]
[2021.03.18-11.16.44:933][  0]LogConfig: Setting CVar [[s.TimeLimitExceededMinTime:0.005]]
[2021.03.18-11.16.44:933][  0]LogConfig: Setting CVar [[s.UseBackgroundLevelStreaming:1]]
[2021.03.18-11.16.44:933][  0]LogConfig: Setting CVar [[s.PriorityAsyncLoadingExtraTime:15.0]]
[2021.03.18-11.16.44:933][  0]LogConfig: Setting CVar [[s.LevelStreamingActorsUpdateTimeLimit:5.0]]
[2021.03.18-11.16.44:933][  0]LogConfig: Setting CVar [[s.PriorityLevelStreamingActorsUpdateExtraTime:5.0]]
[2021.03.18-11.16.44:934][  0]LogConfig: Setting CVar [[s.LevelStreamingComponentsRegistrationGranularity:10]]
[2021.03.18-11.16.44:934][  0]LogConfig: Setting CVar [[s.UnregisterComponentsTimeLimit:1.0]]
[2021.03.18-11.16.44:934][  0]LogConfig: Setting CVar [[s.LevelStreamingComponentsUnregistrationGranularity:5]]
[2021.03.18-11.16.44:934][  0]LogConfig: Setting CVar [[s.FlushStreamingOnExit:1]]
[2021.03.18-11.16.44:934][  0]LogConfig: Applying CVar settings from Section [/Script/Engine.GarbageCollectionSettings] File [C:/Users/1/Documents/Unreal Projects/Snake_Game/Saved/Config/Windows/Engine.ini]
[2021.03.18-11.16.44:934][  0]LogConfig: Setting CVar [[gc.MaxObjectsNotConsideredByGC:1]]
[2021.03.18-11.16.44:934][  0]LogConfig: Setting CVar [[gc.SizeOfPermanentObjectPool:0]]
[2021.03.18-11.16.44:934][  0]LogConfig: Setting CVar [[gc.FlushStreamingOnGC:0]]
[2021.03.18-11.16.44:934][  0]LogConfig: Setting CVar [[gc.NumRetriesBeforeForcingGC:10]]
[2021.03.18-11.16.44:934][  0]LogConfig: Setting CVar [[gc.AllowParallelGC:1]]
[2021.03.18-11.16.44:934][  0]LogConfig: Setting CVar [[gc.TimeBetweenPurgingPendingKillObjects:61.1]]
[2021.03.18-11.16.44:934][  0]LogConfig: Setting CVar [[gc.MaxObjectsInEditor:25165824]]
[2021.03.18-11.16.44:934][  0]LogConfig: Setting CVar [[gc.IncrementalBeginDestroyEnabled:1]]
[2021.03.18-11.16.44:934][  0]LogConfig: Setting CVar [[gc.CreateGCClusters:1]]
[2021.03.18-11.16.44:934][  0]LogConfig: Setting CVar [[gc.MinGCClusterSize:5]]
[2021.03.18-11.16.44:934][  0]LogConfig: Setting CVar [[gc.ActorClusteringEnabled:0]]
[2021.03.18-11.16.44:934][  0]LogConfig: Setting CVar [[gc.BlueprintClusteringEnabled:0]]
[2021.03.18-11.16.44:934][  0]LogConfig: Setting CVar [[gc.UseDisregardForGCOnDedicatedServers:0]]
[2021.03.18-11.16.44:934][  0]LogConfig: Setting CVar [[gc.MultithreadedDestructionEnabled:1]]
[2021.03.18-11.16.44:934][  0]LogConfig: Applying CVar settings from Section [/Script/Engine.NetworkSettings] File [C:/Users/1/Documents/Unreal Projects/Snake_Game/Saved/Config/Windows/Engine.ini]
[2021.03.18-11.16.44:934][  0]LogConfig: Applying CVar settings from Section [/Script/UnrealEd.CookerSettings] File [C:/Users/1/Documents/Unreal Projects/Snake_Game/Saved/Config/Windows/Engine.ini]
[2021.03.18-11.16.44:950][  0]LogConfig: Applying CVar settings from Section [ViewDistanceQuality@3] File [C:/Users/1/Documents/Unreal Projects/Snake_Game/Saved/Config/Windows/Scalability.ini]
[2021.03.18-11.16.44:951][  0]LogConfig: Setting CVar [[r.SkeletalMeshLODBias:0]]
[2021.03.18-11.16.44:951][  0]LogConfig: Setting CVar [[r.ViewDistanceScale:1.0]]
[2021.03.18-11.16.44:951][  0]LogConfig: Applying CVar settings from Section [AntiAliasingQuality@3] File [C:/Users/1/Documents/Unreal Projects/Snake_Game/Saved/Config/Windows/Scalability.ini]
[2021.03.18-11.16.44:951][  0]LogConfig: Setting CVar [[r.PostProcessAAQuality:4]]
[2021.03.18-11.16.44:951][  0]LogConfig: Applying CVar settings from Section [ShadowQuality@3] File [C:/Users/1/Documents/Unreal Projects/Snake_Game/Saved/Config/Windows/Scalability.ini]
[2021.03.18-11.16.44:951][  0]LogConfig: Setting CVar [[r.LightFunctionQuality:1]]
[2021.03.18-11.16.44:951][  0]LogConfig: Setting CVar [[r.ShadowQuality:5]]
[2021.03.18-11.16.44:951][  0]LogConfig: Setting CVar [[r.Shadow.CSM.MaxCascades:10]]
[2021.03.18-11.16.44:951][  0]LogConfig: Setting CVar [[r.Shadow.MaxResolution:2048]]
[2021.03.18-11.16.44:951][  0]LogConfig: Setting CVar [[r.Shadow.MaxCSMResolution:2048]]
[2021.03.18-11.16.44:951][  0]LogConfig: Setting CVar [[r.Shadow.RadiusThreshold:0.01]]
[2021.03.18-11.16.44:951][  0]LogConfig: Setting CVar [[r.Shadow.DistanceScale:1.0]]
[2021.03.18-11.16.44:951][  0]LogConfig: Setting CVar [[r.Shadow.CSM.TransitionScale:1.0]]
[2021.03.18-11.16.44:951][  0]LogConfig: Setting CVar [[r.Shadow.PreShadowResolutionFactor:1.0]]
[2021.03.18-11.16.44:951][  0]LogConfig: Setting CVar [[r.DistanceFieldShadowing:1]]
[2021.03.18-11.16.44:951][  0]LogConfig: Setting CVar [[r.DistanceFieldAO:1]]
[2021.03.18-11.16.44:951][  0]LogConfig: Setting CVar [[r.AOQuality:2]]
[2021.03.18-11.16.44:951][  0]LogConfig: Setting CVar [[r.VolumetricFog:1]]
[2021.03.18-11.16.44:951][  0]LogConfig: Setting CVar [[r.VolumetricFog.GridPixelSize:8]]
[2021.03.18-11.16.44:951][  0]LogConfig: Setting CVar [[r.VolumetricFog.GridSizeZ:128]]
[2021.03.18-11.16.44:951][  0]LogConfig: Setting CVar [[r.VolumetricFog.HistoryMissSupersampleCount:4]]
[2021.03.18-11.16.44:951][  0]LogConfig: Setting CVar [[r.LightMaxDrawDistanceScale:1]]
[2021.03.18-11.16.44:951][  0]LogConfig: Setting CVar [[r.CapsuleShadows:1]]
[2021.03.18-11.16.44:951][  0]LogConfig: Applying CVar settings from Section [PostProcessQuality@3] File [C:/Users/1/Documents/Unreal Projects/Snake_Game/Saved/Config/Windows/Scalability.ini]
[2021.03.18-11.16.44:951][  0]LogConfig: Setting CVar [[r.MotionBlurQuality:4]]
[2021.03.18-11.16.44:951][  0]LogConfig: Setting CVar [[r.AmbientOcclusionMipLevelFactor:0.4]]
[2021.03.18-11.16.44:951][  0]LogConfig: Setting CVar [[r.AmbientOcclusionMaxQuality:100]]
[2021.03.18-11.16.44:951][  0]LogConfig: Setting CVar [[r.AmbientOcclusionLevels:-1]]
[2021.03.18-11.16.44:951][  0]LogConfig: Setting CVar [[r.AmbientOcclusionRadiusScale:1.0]]
[2021.03.18-11.16.44:952][  0]LogConfig: Setting CVar [[r.DepthOfFieldQuality:2]]
[2021.03.18-11.16.44:952][  0]LogConfig: Setting CVar [[r.RenderTargetPoolMin:400]]
[2021.03.18-11.16.44:952][  0]LogConfig: Setting CVar [[r.LensFlareQuality:2]]
[2021.03.18-11.16.44:952][  0]LogConfig: Setting CVar [[r.SceneColorFringeQuality:1]]
[2021.03.18-11.16.44:952][  0]LogConfig: Setting CVar [[r.EyeAdaptationQuality:2]]
[2021.03.18-11.16.44:952][  0]LogConfig: Setting CVar [[r.BloomQuality:5]]
[2021.03.18-11.16.44:952][  0]LogConfig: Setting CVar [[r.FastBlurThreshold:100]]
[2021.03.18-11.16.44:952][  0]LogConfig: Setting CVar [[r.Upscale.Quality:3]]
[2021.03.18-11.16.44:952][  0]LogConfig: Setting CVar [[r.Tonemapper.GrainQuantization:1]]
[2021.03.18-11.16.44:952][  0]LogConfig: Setting CVar [[r.LightShaftQuality:1]]
[2021.03.18-11.16.44:952][  0]LogConfig: Setting CVar [[r.Filter.SizeScale:1]]
[2021.03.18-11.16.44:952][  0]LogConfig: Setting CVar [[r.Tonemapper.Quality:5]]
[2021.03.18-11.16.44:952][  0]LogConfig: Setting CVar [[r.DOF.Gather.AccumulatorQuality:1        ; higher gathering accumulator quality]]
[2021.03.18-11.16.44:952][  0]LogConfig: Setting CVar [[r.DOF.Gather.PostfilterMethod:1          ; Median3x3 postfilering method]]
[2021.03.18-11.16.44:952][  0]LogConfig: Setting CVar [[r.DOF.Gather.EnableBokehSettings:0       ; no bokeh simulation when gathering]]
[2021.03.18-11.16.44:952][  0]LogConfig: Setting CVar [[r.DOF.Gather.RingCount:4                 ; medium number of samples when gathering]]
[2021.03.18-11.16.44:952][  0]LogConfig: Setting CVar [[r.DOF.Scatter.ForegroundCompositing:1    ; additive foreground scattering]]
[2021.03.18-11.16.44:952][  0]LogConfig: Setting CVar [[r.DOF.Scatter.BackgroundCompositing:2    ; additive background scattering]]
[2021.03.18-11.16.44:952][  0]LogConfig: Setting CVar [[r.DOF.Scatter.EnableBokehSettings:1      ; bokeh simulation when scattering]]
[2021.03.18-11.16.44:952][  0]LogConfig: Setting CVar [[r.DOF.Scatter.MaxSpriteRatio:0.1         ; only a maximum of 10% of scattered bokeh]]
[2021.03.18-11.16.44:952][  0]LogConfig: Setting CVar [[r.DOF.Recombine.Quality:1                ; cheap slight out of focus]]
[2021.03.18-11.16.44:952][  0]LogConfig: Setting CVar [[r.DOF.Recombine.EnableBokehSettings:0    ; no bokeh simulation on slight out of focus]]
[2021.03.18-11.16.44:952][  0]LogConfig: Setting CVar [[r.DOF.TemporalAAQuality:1                ; more stable temporal accumulation]]
[2021.03.18-11.16.44:952][  0]LogConfig: Setting CVar [[r.DOF.Kernel.MaxForegroundRadius:0.025]]
[2021.03.18-11.16.44:952][  0]LogConfig: Setting CVar [[r.DOF.Kernel.MaxBackgroundRadius:0.025]]
[2021.03.18-11.16.44:952][  0]LogConfig: Applying CVar settings from Section [TextureQuality@3] File [C:/Users/1/Documents/Unreal Projects/Snake_Game/Saved/Config/Windows/Scalability.ini]
[2021.03.18-11.16.44:952][  0]LogConfig: Setting CVar [[r.Streaming.MipBias:0]]
[2021.03.18-11.16.44:952][  0]LogConfig: Setting CVar [[r.Streaming.AmortizeCPUToGPUCopy:0]]
[2021.03.18-11.16.44:952][  0]LogConfig: Setting CVar [[r.Streaming.MaxNumTexturesToStreamPerFrame:0]]
[2021.03.18-11.16.44:952][  0]LogConfig: Setting CVar [[r.Streaming.Boost:1]]
[2021.03.18-11.16.44:953][  0]LogConfig: Setting CVar [[r.MaxAnisotropy:8]]
[2021.03.18-11.16.44:953][  0]LogConfig: Setting CVar [[r.VT.MaxAnisotropy:8]]
[2021.03.18-11.16.44:953][  0]LogConfig: Setting CVar [[r.Streaming.LimitPoolSizeToVRAM:0]]
[2021.03.18-11.16.44:953][  0]LogConfig: Setting CVar [[r.Streaming.PoolSize:1000]]
[2021.03.18-11.16.44:953][  0]LogConfig: Setting CVar [[r.Streaming.MaxEffectiveScreenSize:0]]
[2021.03.18-11.16.44:953][  0]LogConfig: Applying CVar settings from Section [EffectsQuality@3] File [C:/Users/1/Documents/Unreal Projects/Snake_Game/Saved/Config/Windows/Scalability.ini]
[2021.03.18-11.16.44:953][  0]LogConfig: Setting CVar [[r.TranslucencyLightingVolumeDim:64]]
[2021.03.18-11.16.44:953][  0]LogConfig: Setting CVar [[r.RefractionQuality:2]]
[2021.03.18-11.16.44:953][  0]LogConfig: Setting CVar [[r.SSR.Quality:3]]
[2021.03.18-11.16.44:953][  0]LogConfig: Setting CVar [[r.SSR.HalfResSceneColor:0]]
[2021.03.18-11.16.44:953][  0]LogConfig: Setting CVar [[r.SceneColorFormat:4]]
[2021.03.18-11.16.44:953][  0]LogConfig: Setting CVar [[r.DetailMode:2]]
[2021.03.18-11.16.44:953][  0]LogConfig: Setting CVar [[r.TranslucencyVolumeBlur:1]]
[2021.03.18-11.16.44:953][  0]LogConfig: Setting CVar [[r.MaterialQualityLevel:1 ; High quality]]
[2021.03.18-11.16.44:953][  0]LogConfig: Setting CVar [[r.AnisotropicMaterials:1]]
[2021.03.18-11.16.44:953][  0]LogConfig: Setting CVar [[r.SSS.Scale:1]]
[2021.03.18-11.16.44:953][  0]LogConfig: Setting CVar [[r.SSS.SampleSet:2]]
[2021.03.18-11.16.44:953][  0]LogConfig: Setting CVar [[r.SSS.Quality:1]]
[2021.03.18-11.16.44:953][  0]LogConfig: Setting CVar [[r.SSS.HalfRes:0]]
[2021.03.18-11.16.44:953][  0]LogConfig: Setting CVar [[r.SSGI.Quality:3]]
[2021.03.18-11.16.44:953][  0]LogConfig: Setting CVar [[r.EmitterSpawnRateScale:1.0]]
[2021.03.18-11.16.44:953][  0]LogConfig: Setting CVar [[r.ParticleLightQuality:2]]
[2021.03.18-11.16.44:953][  0]LogConfig: Setting CVar [[r.SkyAtmosphere.AerialPerspectiveLUT.FastApplyOnOpaque:1 ; Always have FastSkyLUT 1 in this case to avoid wrong sky]]
[2021.03.18-11.16.44:953][  0]LogConfig: Setting CVar [[r.SkyAtmosphere.AerialPerspectiveLUT.SampleCountMaxPerSlice:4]]
[2021.03.18-11.16.44:953][  0]LogConfig: Setting CVar [[r.SkyAtmosphere.AerialPerspectiveLUT.DepthResolution:16.0]]
[2021.03.18-11.16.44:953][  0]LogConfig: Setting CVar [[r.SkyAtmosphere.FastSkyLUT:1]]
[2021.03.18-11.16.44:953][  0]LogConfig: Setting CVar [[r.SkyAtmosphere.FastSkyLUT.SampleCountMin:4.0]]
[2021.03.18-11.16.44:953][  0]LogConfig: Setting CVar [[r.SkyAtmosphere.FastSkyLUT.SampleCountMax:128.0]]
[2021.03.18-11.16.44:953][  0]LogConfig: Setting CVar [[r.SkyAtmosphere.SampleCountMin:4.0]]
[2021.03.18-11.16.44:953][  0]LogConfig: Setting CVar [[r.SkyAtmosphere.SampleCountMax:128.0]]
[2021.03.18-11.16.44:954][  0]LogConfig: Setting CVar [[r.SkyAtmosphere.TransmittanceLUT.UseSmallFormat:0]]
[2021.03.18-11.16.44:954][  0]LogConfig: Setting CVar [[r.SkyAtmosphere.TransmittanceLUT.SampleCount:10.0]]
[2021.03.18-11.16.44:954][  0]LogConfig: Setting CVar [[r.SkyAtmosphere.MultiScatteringLUT.SampleCount:15.0]]
[2021.03.18-11.16.44:954][  0]LogConfig: Applying CVar settings from Section [FoliageQuality@3] File [C:/Users/1/Documents/Unreal Projects/Snake_Game/Saved/Config/Windows/Scalability.ini]
[2021.03.18-11.16.44:954][  0]LogConfig: Setting CVar [[foliage.DensityScale:1.0]]
[2021.03.18-11.16.44:954][  0]LogConfig: Setting CVar [[grass.DensityScale:1.0]]
[2021.03.18-11.16.44:954][  0]LogConfig: Applying CVar settings from Section [ShadingQuality@3] File [C:/Users/1/Documents/Unreal Projects/Snake_Game/Saved/Config/Windows/Scalability.ini]
[2021.03.18-11.16.44:954][  0]LogConfig: Setting CVar [[r.HairStrands.SkyLighting.IntegrationType:2]]
[2021.03.18-11.16.44:954][  0]LogConfig: Setting CVar [[r.HairStrands.SkyAO.SampleCount:4]]
[2021.03.18-11.16.44:954][  0]LogConfig: Setting CVar [[r.HairStrands.Visibility.MSAA.SamplePerPixel:4]]
[2021.03.18-11.16.44:954][  0]LogInit: Selected Device Profile: [Windows]
[2021.03.18-11.16.44:954][  0]LogInit: Applying CVar settings loaded from the selected device profile: [Windows]
[2021.03.18-11.16.44:954][  0]LogHAL: Display: Platform has ~ 16 GB [17085992960 / 17179869184 / 16], which maps to Larger [LargestMinGB=32, LargerMinGB=12, DefaultMinGB=8, SmallerMinGB=6, SmallestMinGB=0)
[2021.03.18-11.16.44:954][  0]LogInit: Going up to parent DeviceProfile []
[2021.03.18-11.16.44:954][  0]LogConfig: Applying CVar settings from Section [ViewDistanceQuality@3] File [C:/Users/1/Documents/Unreal Projects/Snake_Game/Saved/Config/Windows/Scalability.ini]
[2021.03.18-11.16.44:954][  0]LogConfig: Setting CVar [[r.SkeletalMeshLODBias:0]]
[2021.03.18-11.16.44:954][  0]LogConfig: Setting CVar [[r.ViewDistanceScale:1.0]]
[2021.03.18-11.16.44:954][  0]LogConfig: Applying CVar settings from Section [AntiAliasingQuality@3] File [C:/Users/1/Documents/Unreal Projects/Snake_Game/Saved/Config/Windows/Scalability.ini]
[2021.03.18-11.16.44:954][  0]LogConfig: Setting CVar [[r.PostProcessAAQuality:4]]
[2021.03.18-11.16.44:954][  0]LogConfig: Applying CVar settings from Section [ShadowQuality@3] File [C:/Users/1/Documents/Unreal Projects/Snake_Game/Saved/Config/Windows/Scalability.ini]
[2021.03.18-11.16.44:954][  0]LogConfig: Setting CVar [[r.LightFunctionQuality:1]]
[2021.03.18-11.16.44:954][  0]LogConfig: Setting CVar [[r.ShadowQuality:5]]
[2021.03.18-11.16.44:954][  0]LogConfig: Setting CVar [[r.Shadow.CSM.MaxCascades:10]]
[2021.03.18-11.16.44:954][  0]LogConfig: Setting CVar [[r.Shadow.MaxResolution:2048]]
[2021.03.18-11.16.44:954][  0]LogConfig: Setting CVar [[r.Shadow.MaxCSMResolution:2048]]
[2021.03.18-11.16.44:954][  0]LogConfig: Setting CVar [[r.Shadow.RadiusThreshold:0.01]]
[2021.03.18-11.16.44:955][  0]LogConfig: Setting CVar [[r.Shadow.DistanceScale:1.0]]
[2021.03.18-11.16.44:955][  0]LogConfig: Setting CVar [[r.Shadow.CSM.TransitionScale:1.0]]
[2021.03.18-11.16.44:955][  0]LogConfig: Setting CVar [[r.Shadow.PreShadowResolutionFactor:1.0]]
[2021.03.18-11.16.44:955][  0]LogConfig: Setting CVar [[r.DistanceFieldShadowing:1]]
[2021.03.18-11.16.44:955][  0]LogConfig: Setting CVar [[r.DistanceFieldAO:1]]
[2021.03.18-11.16.44:955][  0]LogConfig: Setting CVar [[r.AOQuality:2]]
[2021.03.18-11.16.44:955][  0]LogConfig: Setting CVar [[r.VolumetricFog:1]]
[2021.03.18-11.16.44:955][  0]LogConfig: Setting CVar [[r.VolumetricFog.GridPixelSize:8]]
[2021.03.18-11.16.44:955][  0]LogConfig: Setting CVar [[r.VolumetricFog.GridSizeZ:128]]
[2021.03.18-11.16.44:955][  0]LogConfig: Setting CVar [[r.VolumetricFog.HistoryMissSupersampleCount:4]]
[2021.03.18-11.16.44:955][  0]LogConfig: Setting CVar [[r.LightMaxDrawDistanceScale:1]]
[2021.03.18-11.16.44:955][  0]LogConfig: Setting CVar [[r.CapsuleShadows:1]]
[2021.03.18-11.16.44:955][  0]LogConfig: Applying CVar settings from Section [PostProcessQuality@3] File [C:/Users/1/Documents/Unreal Projects/Snake_Game/Saved/Config/Windows/Scalability.ini]
[2021.03.18-11.16.44:955][  0]LogConfig: Setting CVar [[r.MotionBlurQuality:4]]
[2021.03.18-11.16.44:955][  0]LogConfig: Setting CVar [[r.AmbientOcclusionMipLevelFactor:0.4]]
[2021.03.18-11.16.44:955][  0]LogConfig: Setting CVar [[r.AmbientOcclusionMaxQuality:100]]
[2021.03.18-11.16.44:955][  0]LogConfig: Setting CVar [[r.AmbientOcclusionLevels:-1]]
[2021.03.18-11.16.44:955][  0]LogConfig: Setting CVar [[r.AmbientOcclusionRadiusScale:1.0]]
[2021.03.18-11.16.44:955][  0]LogConfig: Setting CVar [[r.DepthOfFieldQuality:2]]
[2021.03.18-11.16.44:955][  0]LogConfig: Setting CVar [[r.RenderTargetPoolMin:400]]
[2021.03.18-11.16.44:955][  0]LogConfig: Setting CVar [[r.LensFlareQuality:2]]
[2021.03.18-11.16.44:955][  0]LogConfig: Setting CVar [[r.SceneColorFringeQuality:1]]
[2021.03.18-11.16.44:955][  0]LogConfig: Setting CVar [[r.EyeAdaptationQuality:2]]
[2021.03.18-11.16.44:955][  0]LogConfig: Setting CVar [[r.BloomQuality:5]]
[2021.03.18-11.16.44:955][  0]LogConfig: Setting CVar [[r.FastBlurThreshold:100]]
[2021.03.18-11.16.44:955][  0]LogConfig: Setting CVar [[r.Upscale.Quality:3]]
[2021.03.18-11.16.44:955][  0]LogConfig: Setting CVar [[r.Tonemapper.GrainQuantization:1]]
[2021.03.18-11.16.44:955][  0]LogConfig: Setting CVar [[r.LightShaftQuality:1]]
[2021.03.18-11.16.44:955][  0]LogConfig: Setting CVar [[r.Filter.SizeScale:1]]
[2021.03.18-11.16.44:956][  0]LogConfig: Setting CVar [[r.Tonemapper.Quality:5]]
[2021.03.18-11.16.44:956][  0]LogConfig: Setting CVar [[r.DOF.Gather.AccumulatorQuality:1        ; higher gathering accumulator quality]]
[2021.03.18-11.16.44:956][  0]LogConfig: Setting CVar [[r.DOF.Gather.PostfilterMethod:1          ; Median3x3 postfilering method]]
[2021.03.18-11.16.44:956][  0]LogConfig: Setting CVar [[r.DOF.Gather.EnableBokehSettings:0       ; no bokeh simulation when gathering]]
[2021.03.18-11.16.44:956][  0]LogConfig: Setting CVar [[r.DOF.Gather.RingCount:4                 ; medium number of samples when gathering]]
[2021.03.18-11.16.44:956][  0]LogConfig: Setting CVar [[r.DOF.Scatter.ForegroundCompositing:1    ; additive foreground scattering]]
[2021.03.18-11.16.44:956][  0]LogConfig: Setting CVar [[r.DOF.Scatter.BackgroundCompositing:2    ; additive background scattering]]
[2021.03.18-11.16.44:956][  0]LogConfig: Setting CVar [[r.DOF.Scatter.EnableBokehSettings:1      ; bokeh simulation when scattering]]
[2021.03.18-11.16.44:956][  0]LogConfig: Setting CVar [[r.DOF.Scatter.MaxSpriteRatio:0.1         ; only a maximum of 10% of scattered bokeh]]
[2021.03.18-11.16.44:956][  0]LogConfig: Setting CVar [[r.DOF.Recombine.Quality:1                ; cheap slight out of focus]]
[2021.03.18-11.16.44:956][  0]LogConfig: Setting CVar [[r.DOF.Recombine.EnableBokehSettings:0    ; no bokeh simulation on slight out of focus]]
[2021.03.18-11.16.44:956][  0]LogConfig: Setting CVar [[r.DOF.TemporalAAQuality:1                ; more stable temporal accumulation]]
[2021.03.18-11.16.44:956][  0]LogConfig: Setting CVar [[r.DOF.Kernel.MaxForegroundRadius:0.025]]
[2021.03.18-11.16.44:956][  0]LogConfig: Setting CVar [[r.DOF.Kernel.MaxBackgroundRadius:0.025]]
[2021.03.18-11.16.44:956][  0]LogConfig: Applying CVar settings from Section [TextureQuality@3] File [C:/Users/1/Documents/Unreal Projects/Snake_Game/Saved/Config/Windows/Scalability.ini]
[2021.03.18-11.16.44:956][  0]LogConfig: Setting CVar [[r.Streaming.MipBias:0]]
[2021.03.18-11.16.44:956][  0]LogConfig: Setting CVar [[r.Streaming.AmortizeCPUToGPUCopy:0]]
[2021.03.18-11.16.44:956][  0]LogConfig: Setting CVar [[r.Streaming.MaxNumTexturesToStreamPerFrame:0]]
[2021.03.18-11.16.44:956][  0]LogConfig: Setting CVar [[r.Streaming.Boost:1]]
[2021.03.18-11.16.44:956][  0]LogConfig: Setting CVar [[r.MaxAnisotropy:8]]
[2021.03.18-11.16.44:956][  0]LogConfig: Setting CVar [[r.VT.MaxAnisotropy:8]]
[2021.03.18-11.16.44:956][  0]LogConfig: Setting CVar [[r.Streaming.LimitPoolSizeToVRAM:0]]
[2021.03.18-11.16.44:956][  0]LogConfig: Setting CVar [[r.Streaming.PoolSize:1000]]
[2021.03.18-11.16.44:956][  0]LogConfig: Setting CVar [[r.Streaming.MaxEffectiveScreenSize:0]]
[2021.03.18-11.16.44:956][  0]LogConfig: Applying CVar settings from Section [EffectsQuality@3] File [C:/Users/1/Documents/Unreal Projects/Snake_Game/Saved/Config/Windows/Scalability.ini]
[2021.03.18-11.16.44:956][  0]LogConfig: Setting CVar [[r.TranslucencyLightingVolumeDim:64]]
[2021.03.18-11.16.44:956][  0]LogConfig: Setting CVar [[r.RefractionQuality:2]]
[2021.03.18-11.16.44:956][  0]LogConfig: Setting CVar [[r.SSR.Quality:3]]
[2021.03.18-11.16.44:956][  0]LogConfig: Setting CVar [[r.SSR.HalfResSceneColor:0]]
[2021.03.18-11.16.44:957][  0]LogConfig: Setting CVar [[r.SceneColorFormat:4]]
[2021.03.18-11.16.44:957][  0]LogConfig: Setting CVar [[r.DetailMode:2]]
[2021.03.18-11.16.44:957][  0]LogConfig: Setting CVar [[r.TranslucencyVolumeBlur:1]]
[2021.03.18-11.16.44:957][  0]LogConfig: Setting CVar [[r.MaterialQualityLevel:1 ; High quality]]
[2021.03.18-11.16.44:957][  0]LogConfig: Setting CVar [[r.AnisotropicMaterials:1]]
[2021.03.18-11.16.44:957][  0]LogConfig: Setting CVar [[r.SSS.Scale:1]]
[2021.03.18-11.16.44:957][  0]LogConfig: Setting CVar [[r.SSS.SampleSet:2]]
[2021.03.18-11.16.44:957][  0]LogConfig: Setting CVar [[r.SSS.Quality:1]]
[2021.03.18-11.16.44:957][  0]LogConfig: Setting CVar [[r.SSS.HalfRes:0]]
[2021.03.18-11.16.44:957][  0]LogConfig: Setting CVar [[r.SSGI.Quality:3]]
[2021.03.18-11.16.44:957][  0]LogConfig: Setting CVar [[r.EmitterSpawnRateScale:1.0]]
[2021.03.18-11.16.44:957][  0]LogConfig: Setting CVar [[r.ParticleLightQuality:2]]
[2021.03.18-11.16.44:957][  0]LogConfig: Setting CVar [[r.SkyAtmosphere.AerialPerspectiveLUT.FastApplyOnOpaque:1 ; Always have FastSkyLUT 1 in this case to avoid wrong sky]]
[2021.03.18-11.16.44:957][  0]LogConfig: Setting CVar [[r.SkyAtmosphere.AerialPerspectiveLUT.SampleCountMaxPerSlice:4]]
[2021.03.18-11.16.44:957][  0]LogConfig: Setting CVar [[r.SkyAtmosphere.AerialPerspectiveLUT.DepthResolution:16.0]]
[2021.03.18-11.16.44:957][  0]LogConfig: Setting CVar [[r.SkyAtmosphere.FastSkyLUT:1]]
[2021.03.18-11.16.44:957][  0]LogConfig: Setting CVar [[r.SkyAtmosphere.FastSkyLUT.SampleCountMin:4.0]]
[2021.03.18-11.16.44:957][  0]LogConfig: Setting CVar [[r.SkyAtmosphere.FastSkyLUT.SampleCountMax:128.0]]
[2021.03.18-11.16.44:957][  0]LogConfig: Setting CVar [[r.SkyAtmosphere.SampleCountMin:4.0]]
[2021.03.18-11.16.44:957][  0]LogConfig: Setting CVar [[r.SkyAtmosphere.SampleCountMax:128.0]]
[2021.03.18-11.16.44:957][  0]LogConfig: Setting CVar [[r.SkyAtmosphere.TransmittanceLUT.UseSmallFormat:0]]
[2021.03.18-11.16.44:957][  0]LogConfig: Setting CVar [[r.SkyAtmosphere.TransmittanceLUT.SampleCount:10.0]]
[2021.03.18-11.16.44:957][  0]LogConfig: Setting CVar [[r.SkyAtmosphere.MultiScatteringLUT.SampleCount:15.0]]
[2021.03.18-11.16.44:957][  0]LogConfig: Applying CVar settings from Section [FoliageQuality@3] File [C:/Users/1/Documents/Unreal Projects/Snake_Game/Saved/Config/Windows/Scalability.ini]
[2021.03.18-11.16.44:957][  0]LogConfig: Setting CVar [[foliage.DensityScale:1.0]]
[2021.03.18-11.16.44:957][  0]LogConfig: Setting CVar [[grass.DensityScale:1.0]]
[2021.03.18-11.16.44:957][  0]LogConfig: Applying CVar settings from Section [ShadingQuality@3] File [C:/Users/1/Documents/Unreal Projects/Snake_Game/Saved/Config/Windows/Scalability.ini]
[2021.03.18-11.16.44:957][  0]LogConfig: Setting CVar [[r.HairStrands.SkyLighting.IntegrationType:2]]
[2021.03.18-11.16.44:957][  0]LogConfig: Setting CVar [[r.HairStrands.SkyAO.SampleCount:4]]
[2021.03.18-11.16.44:957][  0]LogConfig: Setting CVar [[r.HairStrands.Visibility.MSAA.SamplePerPixel:4]]
[2021.03.18-11.16.44:957][  0]LogConfig: Applying CVar settings from Section [Startup] File [../../../Engine/Config/ConsoleVariables.ini]
[2021.03.18-11.16.44:958][  0]LogConfig: Setting CVar [[net.UseAdaptiveNetUpdateFrequency:0]]
[2021.03.18-11.16.44:958][  0]LogConfig: Setting CVar [[p.chaos.AllowCreatePhysxBodies:1]]
[2021.03.18-11.16.44:958][  0]LogConfig: Setting CVar [[fx.SkipVectorVMBackendOptimizations:1]]
[2021.03.18-11.16.44:958][  0]LogConfig: Applying CVar settings from Section [ConsoleVariables] File [C:/Users/1/Documents/Unreal Projects/Snake_Game/Saved/Config/Windows/Engine.ini]
[2021.03.18-11.16.44:958][  0]LogInit: Computer: DESKTOP-QU2H0PU
[2021.03.18-11.16.44:958][  0]LogInit: User: 1
[2021.03.18-11.16.44:958][  0]LogInit: CPU Page size=4096, Cores=8
[2021.03.18-11.16.44:958][  0]LogInit: High frequency timer resolution =10.000000 MHz
[2021.03.18-11.16.44:958][  0]LogMemory: Memory total: Physical=15.9GB (16GB approx)
[2021.03.18-11.16.44:958][  0]LogMemory: Platform Memory Stats for Windows
[2021.03.18-11.16.44:958][  0]LogMemory: Process Physical Memory: 134.81 MB used, 134.82 MB peak
[2021.03.18-11.16.44:958][  0]LogMemory: Process Virtual Memory: 111.35 MB used, 111.35 MB peak
[2021.03.18-11.16.44:958][  0]LogMemory: Physical Memory: 7097.09 MB used,  9197.39 MB free, 16294.47 MB total
[2021.03.18-11.16.44:958][  0]LogMemory: Virtual Memory: 134210144.00 MB used,  7580.61 MB free, 134217728.00 MB total
[2021.03.18-11.16.44:966][  0]LogWindows: WindowsPlatformFeatures enabled
[2021.03.18-11.16.45:099][  0]LogInit: Physics initialised using underlying interface: PhysX
[2021.03.18-11.16.45:100][  0]LogInit: Using OS detected language (ru-RU).
[2021.03.18-11.16.45:100][  0]LogInit: Using OS detected locale (ru-RU).
[2021.03.18-11.16.45:102][  0]LogTextLocalizationManager: No specific localization for 'ru-RU' exists, so the 'ru' localization will be used.
[2021.03.18-11.16.45:102][  0]LogTextLocalizationResource: LocRes '../../../Engine/Content/Localization/Editor/ru/Editor.locres' could not be opened for reading!
[2021.03.18-11.16.45:103][  0]LogTextLocalizationResource: LocRes '../../../Engine/Content/Localization/EditorTutorials/ru/EditorTutorials.locres' could not be opened for reading!
[2021.03.18-11.16.45:103][  0]LogTextLocalizationResource: LocRes '../../../Engine/Content/Localization/Keywords/ru/Keywords.locres' could not be opened for reading!
[2021.03.18-11.16.45:103][  0]LogTextLocalizationResource: LocRes '../../../Engine/Content/Localization/Category/ru/Category.locres' could not be opened for reading!
[2021.03.18-11.16.45:103][  0]LogTextLocalizationResource: LocRes '../../../Engine/Content/Localization/ToolTips/ru/ToolTips.locres' could not be opened for reading!
[2021.03.18-11.16.45:103][  0]LogTextLocalizationResource: LocRes '../../../Engine/Content/Localization/PropertyNames/ru/PropertyNames.locres' could not be opened for reading!
[2021.03.18-11.16.45:103][  0]LogTextLocalizationResource: LocRes '../../../Engine/Content/Localization/Engine/ru/Engine.locres' could not be opened for reading!
[2021.03.18-11.16.45:104][  0]LogInit: Setting process to per monitor DPI aware
[2021.03.18-11.16.45:122][  0]LogWindowsTextInputMethodSystem: Display: IME system deactivated.
[2021.03.18-11.16.45:162][  0]LogSlate: New Slate User Created.  User Index 0, Is Virtual User: 0
[2021.03.18-11.16.45:162][  0]LogSlate: Slate User Registered.  User Index 0, Is Virtual User: 0
[2021.03.18-11.16.45:270][  0]LogHMD: Failed to initialize OpenVR with code 110
[2021.03.18-11.16.45:270][  0]LogD3D11RHI: D3D11 min allowed feature level: 11_0
[2021.03.18-11.16.45:270][  0]LogD3D11RHI: D3D11 max allowed feature level: 11_0
[2021.03.18-11.16.45:270][  0]LogD3D11RHI: D3D11 adapters:
[2021.03.18-11.16.45:353][  0]LogD3D11RHI:    0. 'NVIDIA GeForce RTX 3060 Ti' (Feature Level 11_0)
[2021.03.18-11.16.45:353][  0]LogD3D11RHI:       8050/0/8147 MB DedicatedVideo/DedicatedSystem/SharedSystem, Outputs:2, VendorId:0x10de
[2021.03.18-11.16.45:356][  0]LogD3D11RHI:    1. 'Microsoft Basic Render Driver' (Feature Level 11_0)
[2021.03.18-11.16.45:356][  0]LogD3D11RHI:       0/0/8147 MB DedicatedVideo/DedicatedSystem/SharedSystem, Outputs:0, VendorId:0x1414
[2021.03.18-11.16.45:356][  0]LogD3D11RHI: Chosen D3D11 Adapter: 0
[2021.03.18-11.16.45:360][  0]LogD3D11RHI: Creating new Direct3DDevice
[2021.03.18-11.16.45:360][  0]LogD3D11RHI:     GPU DeviceId: 0x2486 (for the marketing name, search the web for "GPU Device Id")
[2021.03.18-11.16.45:360][  0]LogWindows: EnumDisplayDevices:
[2021.03.18-11.16.45:360][  0]LogWindows:    0. 'NVIDIA GeForce RTX 3060 Ti' (P:1 D:1)
[2021.03.18-11.16.45:360][  0]LogWindows:    1. 'NVIDIA GeForce RTX 3060 Ti' (P:0 D:1)
[2021.03.18-11.16.45:360][  0]LogWindows:    2. 'NVIDIA GeForce RTX 3060 Ti' (P:0 D:0)
[2021.03.18-11.16.45:360][  0]LogWindows:    3. 'NVIDIA GeForce RTX 3060 Ti' (P:0 D:0)
[2021.03.18-11.16.45:361][  0]LogWindows: DebugString: FoundDriverCount:4 
[2021.03.18-11.16.45:361][  0]LogD3D11RHI:     Adapter Name: NVIDIA GeForce RTX 3060 Ti
[2021.03.18-11.16.45:361][  0]LogD3D11RHI:   Driver Version: 461.33 (internal:27.21.14.6133, unified:461.33)
[2021.03.18-11.16.45:361][  0]LogD3D11RHI:      Driver Date: 1-19-2021
[2021.03.18-11.16.45:361][  0]LogRHI: Texture pool is 5635 MB (70% of 8050 MB)
[2021.03.18-11.16.45:419][  0]LogD3D11RHI: RHI has support for 64 bit atomics
[2021.03.18-11.16.45:419][  0]LogD3D11RHI: Async texture creation enabled
[2021.03.18-11.16.45:419][  0]LogD3D11RHI: Array index from any shader is supported
[2021.03.18-11.16.45:432][  0]LogD3D11RHI: GPU Timing Frequency: 1000.000000 (Debug: 2 1)
[2021.03.18-11.16.45:434][  0]LogRHI: GeForceNow SDK initialized: 1
[2021.03.18-11.16.45:972][  0]LogTargetPlatformManager: Display: Loaded TargetPlatform 'AllDesktop'
[2021.03.18-11.16.45:987][  0]LogTargetPlatformManager: Display: Loaded TargetPlatform 'Android'
[2021.03.18-11.16.45:987][  0]LogTargetPlatformManager: Display: Loaded TargetPlatform 'Android_ASTC'
[2021.03.18-11.16.45:987][  0]LogTargetPlatformManager: Display: Loaded TargetPlatform 'Android_DXT'
[2021.03.18-11.16.45:987][  0]LogTargetPlatformManager: Display: Loaded TargetPlatform 'Android_ETC2'
[2021.03.18-11.16.45:987][  0]LogTargetPlatformManager: Display: Loaded TargetPlatform 'AndroidClient'
[2021.03.18-11.16.45:987][  0]LogTargetPlatformManager: Display: Loaded TargetPlatform 'Android_ASTCClient'
[2021.03.18-11.16.45:987][  0]LogTargetPlatformManager: Display: Loaded TargetPlatform 'Android_DXTClient'
[2021.03.18-11.16.45:987][  0]LogTargetPlatformManager: Display: Loaded TargetPlatform 'Android_ETC2Client'
[2021.03.18-11.16.45:987][  0]LogTargetPlatformManager: Display: Loaded TargetPlatform 'Android_Multi'
[2021.03.18-11.16.45:987][  0]LogTargetPlatformManager: Display: Loaded TargetPlatform 'Android_MultiClient'
[2021.03.18-11.16.46:006][  0]LogTargetPlatformManager: Display: Loaded TargetPlatform 'IOSClient'
[2021.03.18-11.16.46:006][  0]LogTargetPlatformManager: Display: Loaded TargetPlatform 'IOS'
[2021.03.18-11.16.46:014][  0]LogTargetPlatformManager: Display: Loaded TargetPlatform 'Linux'
[2021.03.18-11.16.46:020][  0]LogTargetPlatformManager: Display: Loaded TargetPlatform 'LinuxNoEditor'
[2021.03.18-11.16.46:027][  0]LogTargetPlatformManager: Display: Loaded TargetPlatform 'LinuxClient'
[2021.03.18-11.16.46:033][  0]LogTargetPlatformManager: Display: Loaded TargetPlatform 'LinuxServer'
[2021.03.18-11.16.46:039][  0]LogTargetPlatformManager: Display: Loaded TargetPlatform 'LinuxAArch64NoEditor'
[2021.03.18-11.16.46:046][  0]LogTargetPlatformManager: Display: Loaded TargetPlatform 'LinuxAArch64Client'
[2021.03.18-11.16.46:052][  0]LogTargetPlatformManager: Display: Loaded TargetPlatform 'LinuxAArch64Server'
[2021.03.18-11.16.46:069][  0]LogTargetPlatformManager: Display: Loaded TargetPlatform 'Lumin'
[2021.03.18-11.16.46:069][  0]LogTargetPlatformManager: Display: Loaded TargetPlatform 'LuminClient'
[2021.03.18-11.16.46:076][  0]LogTargetPlatformManager: Display: Loaded TargetPlatform 'MacNoEditor'
[2021.03.18-11.16.46:082][  0]LogTargetPlatformManager: Display: Loaded TargetPlatform 'Mac'
[2021.03.18-11.16.46:089][  0]LogTargetPlatformManager: Display: Loaded TargetPlatform 'MacClient'
[2021.03.18-11.16.46:095][  0]LogTargetPlatformManager: Display: Loaded TargetPlatform 'MacServer'
[2021.03.18-11.16.46:106][  0]LogTargetPlatformManager: Display: Loaded TargetPlatform 'TVOSClient'
[2021.03.18-11.16.46:106][  0]LogTargetPlatformManager: Display: Loaded TargetPlatform 'TVOS'
[2021.03.18-11.16.46:112][  0]LogTargetPlatformManager: Display: Loaded TargetPlatform 'WindowsNoEditor'
[2021.03.18-11.16.46:119][  0]LogTargetPlatformManager: Display: Loaded TargetPlatform 'Windows'
[2021.03.18-11.16.46:125][  0]LogTargetPlatformManager: Display: Loaded TargetPlatform 'WindowsClient'
[2021.03.18-11.16.46:132][  0]LogTargetPlatformManager: Display: Loaded TargetPlatform 'WindowsServer'
[2021.03.18-11.16.46:132][  0]LogTargetPlatformManager: Display: Building Assets For Windows
[2021.03.18-11.16.46:140][  0]LogAudioDebug: Display: Lib vorbis DLL was dynamically loaded.
[2021.03.18-11.16.46:205][  0]LogRendererCore: Ray tracing is disabled. Reason: r.RayTracing=0.
[2021.03.18-11.16.46:205][  0]LogShaderCompilers: Guid format shader working directory is -21 characters bigger than the processId version (../../../../../../Users/1/Documents/Unreal Projects/Snake_Game/Intermediate/Shaders/WorkingDirectory/11528/).
[2021.03.18-11.16.46:205][  0]LogShaderCompilers: Cleaned the shader compiler working directory 'C:/Users/1/AppData/Local/Temp/UnrealShaderWorkingDir/9840295F4540E8F873FE2EBC6A7D56D2/'.
[2021.03.18-11.16.46:205][  0]LogShaderCompilers: Cannot use XGE Shader Compiler as Incredibuild is not installed on this machine.
[2021.03.18-11.16.46:205][  0]LogShaderCompilers: Display: Using Local Shader Compiler.
[2021.03.18-11.16.46:783][  0]LogDerivedDataCache: Display: Max Cache Size: 512 MB
[2021.03.18-11.16.46:822][  0]LogDerivedDataCache: Loaded boot cache 0.04s 77MB C:/Users/1/AppData/Local/UnrealEngine/4.26/DerivedDataCache/Boot.ddc.
[2021.03.18-11.16.46:822][  0]LogDerivedDataCache: Display: Loaded Boot cache: C:/Users/1/AppData/Local/UnrealEngine/4.26/DerivedDataCache/Boot.ddc
[2021.03.18-11.16.46:823][  0]LogDerivedDataCache: FDerivedDataBackendGraph:  Pak pak cache file ../../../../../../Users/1/Documents/Unreal Projects/Snake_Game/DerivedDataCache/DDC.ddp not found, will not use a pak cache.
[2021.03.18-11.16.46:823][  0]LogDerivedDataCache: Unable to find inner node Pak for hierarchical cache Hierarchy.
[2021.03.18-11.16.46:823][  0]LogDerivedDataCache: FDerivedDataBackendGraph:  CompressedPak pak cache file ../../../../../../Users/1/Documents/Unreal Projects/Snake_Game/DerivedDataCache/Compressed.ddp not found, will not use a pak cache.
[2021.03.18-11.16.46:823][  0]LogDerivedDataCache: Unable to find inner node CompressedPak for hierarchical cache Hierarchy.
[2021.03.18-11.16.46:831][  0]LogDerivedDataCache: Display: Pak cache opened for reading ../../../Engine/DerivedDataCache/Compressed.ddp.
[2021.03.18-11.16.46:832][  0]LogDerivedDataCache: FDerivedDataBackendGraph:  EnterprisePak pak cache file ../../../Enterprise/DerivedDataCache/Compressed.ddp not found, will not use a pak cache.
[2021.03.18-11.16.46:832][  0]LogDerivedDataCache: Unable to find inner node EnterprisePak for hierarchical cache Hierarchy.
[2021.03.18-11.16.46:840][  0]LogDerivedDataCache: Speed tests for C:/Users/1/AppData/Local/UnrealEngine/Common/DerivedDataCache took 0.01 seconds
[2021.03.18-11.16.46:840][  0]LogDerivedDataCache: Display: Performance to C:/Users/1/AppData/Local/UnrealEngine/Common/DerivedDataCache: Latency=0.02ms. RandomReadSpeed=406.53MBs, RandomWriteSpeed=155.57MBs. Assigned SpeedClass 'Local'
[2021.03.18-11.16.46:841][  0]LogDerivedDataCache: Using Local data cache path C:/Users/1/AppData/Local/UnrealEngine/Common/DerivedDataCache: Writable
[2021.03.18-11.16.46:842][  0]LogDerivedDataCache: Shared data cache path not found in *engine.ini, will not use an Shared cache.
[2021.03.18-11.16.46:842][  0]LogDerivedDataCache: Unable to find inner node Shared for hierarchical cache Hierarchy.
[2021.03.18-11.16.46:877][  0]LogSlate: Using FreeType 2.10.0
[2021.03.18-11.16.46:877][  0]LogSlate: SlateFontServices - WITH_FREETYPE: 1, WITH_HARFBUZZ: 1
[2021.03.18-11.16.46:895][  0]LogAssetRegistry: FAssetRegistry took 0.0029 seconds to start up
[2021.03.18-11.16.47:056][  0]LogInit: Selected Device Profile: [Windows]
[2021.03.18-11.16.47:056][  0]LogInit: Active device profile: [000001B48C282200][000001B48B22E200 49] Windows
[2021.03.18-11.16.47:056][  0]LogInit: Profiles: [000001B48C282200][000001B48B22E200 49] Windows, [000001B48D205100][000001B48B236380 49] WindowsNoEditor, [000001B48C280800][000001B48B23A500 49] WindowsServer, [000001B48D206900][000001B48B23E680 49] WindowsClient, [000001B48C280600][000001B48B242800 49] IOS, [000001B48D1FFF00][000001B48B246980 49] iPadAir, [000001B48D207300][000001B48B24AB00 49] iPadAir2, [000001B48D1B5500][000001B48B252DC0 49] IPadPro, [000001B48D1B5600][000001B48B24EE00 49] iPadAir3, [000001B48D204F00][000001B48B256F80 49] iPadAir4, [000001B48D1B6E00][000001B48B25B100 49] iPadMini2, [000001B48D207A00][000001B480613280 49] iPadMini3, [000001B48D1B7F00][000001B480617400 49] iPadMini4, [000001B48D204E00][000001B48B233540 49] iPadMini5, [000001B48D1FF600][000001B48061F780 49] iPhone6, [000001B48D1FE100][000001B48061B7C0 49] iPodTouch6, [000001B48D1B6B00][000001B48062BA40 49] iPhone7, [000001B48D1B4700][000001B480623A80 49] iPodTouch7, [000001B48D1FD000][000001B48062FC00 49] iPhone5S, [000001B48D1B7200][000001B4806320C0 49] iPhone6Plus, [000001B48D1FDF00][000001B480636240 49] iPhone6S, [000001B48D1B5800][000001B48063A3C0 49] iPhone6SPlus, [000001B48D1FF300][000001B48063E540 49] iPhone7Plus, [000001B48D1B6A00][000001B4806426C0 49] iPhoneSE, [000001B48D1FCB00][000001B480646840 49] iPhone8, [000001B48D1B7400][000001B48064A9C0 49] iPhone8Plus, [000001B48D1FEE00][000001B48064EB40 49] iPhoneX, [000001B48D1B6900][000001B480652CC0 49] iPhoneXS, [000001B48D1FE500][000001B480656E40 49] iPhoneXSMax, [000001B48D1B4F00][000001B48065AFC0 49] iPhoneXR, [000001B48D1FFE00][000001B48065F140 49] iPhone11, [000001B48D1B7900][000001B4806632C0 49] iPhone11Pro, [000001B48D1FD500][000001B480667440 49] iPhone11ProMax, [000001B48D1B5100][000001B480627580 49] iPhoneSE2, [000001B48D1FE000][000001B48066B6C0 49] iPhone12Mini, [000001B48D1B6200][000001B48066F800 49] iPhone12, [000001B48C281A00][000001B480673940 49] iPhone12Pro, [000001B48D1B7000][000001B48068DAC0 49] iPhone12ProMax, [000001B48C282900][000001B480691C40 49] iPadPro105, [000001B48D1B7800][000001B4806BC100 49] iPadPro129, [000001B48C280A00][000001B4806C4280 49] iPadPro97, [000001B48D1B5B00][000001B4806C8400 49] iPadPro2_129, [000001B48C281F00][000001B4806CC580 49] iPad5, [000001B48D1B4400][000001B4806D0700 49] iPad6, [000001B48C282400][000001B4806D8880 49] iPad7, [000001B48D1B4100][000001B4806DCA00 49] iPad8, [000001B48C282100][000001B48D270B80 49] iPadPro11, [000001B48D1B4B00][000001B48D27CD00 49] iPadPro2_11, [000001B48C281200][000001B48D280E80 49] iPadPro3_129, [000001B48D1B5D00][000001B48D285000 49] iPadPro4_129, [000001B48C280F00][000001B48D289180 49] AppleTV, [000001B48D1B7700][000001B48D299300 49] AppleTV4K, [000001B48C281800][000001B48D29D480 49] TVOS, [000001B48D1B7600][000001B48D2A1600 49] Mac, [000001B48C281E00][000001B480677740 49] MacClient, [000001B48D1B4800][000001B48D2A5880 49] MacNoEditor, [000001B48C281700][000001B48D2A99C0 49] MacServer, [000001B48D1B4600][000001B48D2C9B40 49] Linux, [000001B48C282A00][000001B48D2CDCC0 49] LinuxNoEditor, [000001B48D1B6400][000001B48D2D0180 49] LinuxAArch64NoEditor, [000001B48C282B00][000001B48D2D4300 49] LinuxClient, [000001B48D1B7300][000001B48D2D8480 49] LinuxAArch64Client, [000001B48C280400][000001B48D2DC600 49] LinuxServer, [000001B48D1B4C00][000001B48D300780 49] LinuxAArch64Server, [000001B48C281100][000001B48D304900 49] Android, [000001B48D1B5F00][000001B48D308A80 49] Android_Low, [000001B48C280D00][000001B48D30CC00 49] Android_Mid, [000001B48D1B6300][000001B48D310D80 49] Android_High, [000001B48C280100][000001B48D314F00 49] Android_Default, [000001B48D204C00][000001B48D319080 49] Android_Adreno4xx, [000001B48D1FD200][000001B48D31D200 49] Android_Adreno5xx_Low, [000001B48D205800][000001B48D321380 49] Android_Adreno5xx, [000001B48D1FD400][000001B48D325500 49] Android_Adreno6xx, [000001B48D206700][000001B48D329680 49] Android_Adreno6xx_Vulkan, [000001B48D1FD700][000001B48D2AD7C0 49] Android_Mali_T6xx, [000001B48D205200][000001B48D32D900 49] Android_Mali_T7xx, [000001B48D1FDA00][000001B48D331A40 49] Android_Mali_T8xx, [000001B48D206600][000001B48D335B80 49] Android_Mali_G71, [000001B48D1FEC00][000001B48D33DD00 49] Android_Mali_G72, [000001B48D207900][000001B48D3401C0 49] Android_Mali_G72_Vulkan, [000001B48D1FC400][000001B48D344340 49] Android_Mali_G76, [000001B48D207600][000001B48D3484C0 49] Android_Mali_G76_Vulkan, [000001B48D1FC800][000001B48D34C640 49] Android_Mali_G77, [000001B48D204200][000001B48D3507C0 49] Android_Mali_G77_Vulkan, [000001B48D1FFB00][000001B48D354940 49] Android_Vulkan_SM5, [000001B48D206000][000001B48D358AC0 49] Android_PowerVR_G6xxx, [000001B48D1FE900][000001B48D35CC40 49] Android_PowerVR_GT7xxx, [000001B48D206200][000001B48D360DC0 49] Android_PowerVR_GE8xxx, [000001B48D1FC200][000001B48D364F40 49] Android_PowerVR_GM9xxx, [000001B48D207E00][000001B48D3690C0 49] Android_PowerVR_GM9xxx_Vulkan, [000001B48D1FE300][000001B48D36D240 49] Android_TegraK1, [000001B48D206300][000001B48D3713C0 49] Android_Unknown_Vulkan, [000001B48D1FE400][000001B48D375540 49] Lumin, [000001B48D206E00][000001B48D3796C0 49] Lumin_Desktop, [000001B48D1FF400][000001B48D339800 49] HoloLens, 
[2021.03.18-11.16.47:145][  0]LogMeshReduction: Using QuadricMeshReduction for automatic static mesh reduction
[2021.03.18-11.16.47:145][  0]LogMeshReduction: Using SimplygonMeshReduction for automatic skeletal mesh reduction
[2021.03.18-11.16.47:145][  0]LogMeshReduction: Using ProxyLODMeshReduction for automatic mesh merging
[2021.03.18-11.16.47:145][  0]LogMeshReduction: No distributed automatic mesh merging module available
[2021.03.18-11.16.47:145][  0]LogMeshMerging: No distributed automatic mesh merging module available
[2021.03.18-11.16.47:170][  0]LogNetVersion: Snake_Game 1.0.0, NetCL: 14830424, EngineNetVer: 16, GameNetVer: 0 (Checksum: 1443408278)
[2021.03.18-11.16.47:447][  0]LogHMD: PokeAHoleMaterial loaded successfully
[2021.03.18-11.16.47:481][  0]LogPackageLocalizationCache: Processed 22 localized package path(s) for 1 prioritized culture(s) in 0.032588 seconds
[2021.03.18-11.16.47:484][  0]LogUObjectArray: 16830 objects as part of root set at end of initial load.
[2021.03.18-11.16.47:484][  0]LogUObjectAllocator: 4209472 out of 0 bytes used by permanent object pool.
[2021.03.18-11.16.47:484][  0]LogUObjectArray: CloseDisregardForGC: 0/0 objects in disregard for GC pool
[2021.03.18-11.16.47:733][  0]LogTcpMessaging: Initializing TcpMessaging bridge
[2021.03.18-11.16.47:737][  0]LogUdpMessaging: Initializing bridge on interface 0.0.0.0:0 to multicast group 230.0.0.1:6666.
[2021.03.18-11.16.47:895][  0]SourceControl: Source control is disabled
[2021.03.18-11.16.48:117][  0]LogUProjectInfo: Found projects:
[2021.03.18-11.16.48:291][  0]LogAndroidPermission: UAndroidPermissionCallbackProxy::GetInstance
[2021.03.18-11.16.48:311][  0]LogAudioCaptureCore: Display: No Audio Capture implementations found. Audio input will be silent.
[2021.03.18-11.16.48:311][  0]LogAudioCaptureCore: Display: No Audio Capture implementations found. Audio input will be silent.
[2021.03.18-11.16.48:389][  0]LogCollectionManager: Loaded 0 collections in 0.001076 seconds
[2021.03.18-11.16.48:410][  0]LogFileCache: Scanning file cache for directory 'C:/Users/1/Documents/Unreal Projects/Snake_Game/Saved/Collections/' took 0.00s
[2021.03.18-11.16.48:410][  0]LogFileCache: Scanning file cache for directory 'C:/Users/1/Documents/Unreal Projects/Snake_Game/Content/Developers/1/Collections/' took 0.00s
[2021.03.18-11.16.48:410][  0]LogFileCache: Scanning file cache for directory 'C:/Users/1/Documents/Unreal Projects/Snake_Game/Content/Collections/' took 0.00s
[2021.03.18-11.16.48:410][  0]LogOcInput: OculusInput pre-init called
[2021.03.18-11.16.48:419][  0]LogWindows: Failed to load 'OVRPlugin.dll' (GetLastError=126)
[2021.03.18-11.16.48:419][  0]LogWindows: File 'OVRPlugin.dll' does not exist
[2021.03.18-11.16.48:464][  0]LogEngine: Initializing Engine...
[2021.03.18-11.16.48:465][  0]LogHMD: Failed to initialize OpenVR with code 110
[2021.03.18-11.16.48:465][  0]LogMagicLeap: Warning: VR disabled because ZI is not enabled.  To enable, in the editor, Edit -> Project Settings -> Plugins -> Magic Leap Plugin -> Enable Zero Iteration
[2021.03.18-11.16.48:466][  0]LogStats: UGameplayTagsManager::InitializeManager -  0.000 s
[2021.03.18-11.16.48:539][  0]LogInit: Initializing FReadOnlyCVARCache
[2021.03.18-11.16.48:545][  0]LogAIModule: Creating AISystem for world Untitled
[2021.03.18-11.16.48:553][  0]LogAudio: Display: Initializing Audio Device Manager...
[2021.03.18-11.16.48:557][  0]LogAudio: Display: Audio Device Manager Initialized
[2021.03.18-11.16.48:557][  0]LogAudio: Display: Creating Audio Device:                 Id: 1, Scope: Shared, Realtime: True
[2021.03.18-11.16.48:557][  0]LogAudioMixer: Display: Audio Mixer Platform Settings:
[2021.03.18-11.16.48:557][  0]LogAudioMixer: Display: 	Sample Rate:						  48000
[2021.03.18-11.16.48:557][  0]LogAudioMixer: Display: 	Callback Buffer Frame Size Requested: 1024
[2021.03.18-11.16.48:557][  0]LogAudioMixer: Display: 	Callback Buffer Frame Size To Use:	  1024
[2021.03.18-11.16.48:557][  0]LogAudioMixer: Display: 	Number of buffers to queue:			  2
[2021.03.18-11.16.48:557][  0]LogAudioMixer: Display: 	Max Channels (voices):				  32
[2021.03.18-11.16.48:557][  0]LogAudioMixer: Display: 	Number of Async Source Workers:		  0
[2021.03.18-11.16.48:557][  0]LogAudio: Display: AudioDevice MaxSources: 32
[2021.03.18-11.16.48:558][  0]LogAudio: Display: Using built-in audio occlusion.
[2021.03.18-11.16.48:558][  0]LogAudioMixer: Display: Initializing audio mixer.
[2021.03.18-11.16.48:569][  0]LogAudioMixer: Display: 0: FrontLeft
[2021.03.18-11.16.48:569][  0]LogAudioMixer: Display: 1: FrontRight
[2021.03.18-11.16.48:606][  0]LogAudioMixer: Display: Using Audio Device Динамики (Realtek High Definition Audio)
[2021.03.18-11.16.48:609][  0]LogAudioMixer: Display: Initializing Sound Submixes...
[2021.03.18-11.16.48:611][  0]LogAudioMixer: Display: Creating Master Submix 'MasterSubmixDefault'
[2021.03.18-11.16.48:611][  0]LogAudioMixer: Display: Creating Master Submix 'MasterReverbSubmixDefault'
[2021.03.18-11.16.48:611][  0]LogAudioMixer: Display: Creating Master Submix 'MasterEQSubmixDefault'
[2021.03.18-11.16.48:611][  0]LogAudioMixer: FMixerPlatformXAudio2::StartAudioStream() called
[2021.03.18-11.16.48:611][  0]LogAudioMixer: Display: Output buffers initialized: Frames=1024, Channels=2, Samples=2048
[2021.03.18-11.16.48:613][  0]LogAudioMixer: Display: Starting AudioMixerPlatformInterface::RunInternal()
[2021.03.18-11.16.48:613][  0]LogAudioMixer: Display: FMixerPlatformXAudio2::SubmitBuffer() called for the first time
[2021.03.18-11.16.48:613][  0]LogInit: FAudioDevice initialized.
[2021.03.18-11.16.48:613][  0]LogAudio: Display: Audio Device (ID: 1) registered with world 'Untitled'.
[2021.03.18-11.16.48:613][  0]LogNetVersion: Set ProjectVersion to 1.0.0.0. Version Checksum will be recalculated on next use.
[2021.03.18-11.16.48:646][  0]LogDerivedDataCache: Saved boot cache 0.03s 77MB C:/Users/1/AppData/Local/UnrealEngine/4.26/DerivedDataCache/Boot.ddc.
[2021.03.18-11.16.48:649][  0]LogInit: Texture streaming: Enabled
[2021.03.18-11.16.48:661][  0]LogAnalytics: Display: [UEEditor.Rocket.Release] APIServer = https://datarouter.ol.epicgames.com/. AppVersion = 4.26.1-15228867+++UE4+Release-4.26
[2021.03.18-11.16.48:665][  0]LogEngineSessionManager: EngineSessionManager initialized
[2021.03.18-11.16.48:665][  0]LogEngineSessionManager: EngineSessionManager sent abnormal shutdown report. Type=Debugger, SessionId={15ACC9DD-41EE-2E75-F6FC-99A0B3496A74}
[2021.03.18-11.16.48:665][  0]LogEditorSessionSummary: Verbose: Initializing EditorSessionSummaryWriter for editor session tracking
[2021.03.18-11.16.48:666][  0]LogEditorSessionSummary: EditorSessionSummaryWriter initialized
[2021.03.18-11.16.48:689][  0]LogInit: Transaction tracking system initialized
[2021.03.18-11.16.48:710][  0]BlueprintLog: New page: Editor Load
[2021.03.18-11.16.48:771][  0]LocalizationService: Localization service is disabled
[2021.03.18-11.16.48:793][  0]TimingProfiler: Initialize
[2021.03.18-11.16.48:793][  0]TimingProfiler: OnSessionChanged
[2021.03.18-11.16.48:793][  0]LoadingProfiler: Initialize
[2021.03.18-11.16.48:793][  0]LoadingProfiler: OnSessionChanged
[2021.03.18-11.16.48:793][  0]NetworkingProfiler: Initialize
[2021.03.18-11.16.48:793][  0]NetworkingProfiler: OnSessionChanged
[2021.03.18-11.16.48:793][  0]MemoryProfiler: Initialize
[2021.03.18-11.16.48:793][  0]MemoryProfiler: OnSessionChanged
[2021.03.18-11.16.48:898][  0]LogCook: Display: CookSettings for Memory: MemoryMaxUsedVirtual 0MiB, MemoryMaxUsedPhysical 16384MiB, MemoryMinFreeVirtual 0MiB, MemoryMinFreePhysical 1024MiB
[2021.03.18-11.16.48:898][  0]LogCook: Display: Mobile HDR setting 1
[2021.03.18-11.16.48:928][  0]LogFileCache: Scanning file cache for directory 'C:/Users/1/Documents/Unreal Projects/Snake_Game/Content/' took 0.00s
[2021.03.18-11.16.49:143][  0]LogInit: Display: Engine is initialized. Leaving FEngineLoop::Init()
[2021.03.18-11.16.49:145][  0]LogUnrealEdMisc: Loading editor; pre map load, took 4.994
[2021.03.18-11.16.49:145][  0]Cmd: MAP LOAD FILE="../../../../../../Users/1/Documents/Unreal Projects/Snake_Game/Content/Main.umap" TEMPLATE=0 SHOWPROGRESS=1 FEATURELEVEL=3
[2021.03.18-11.16.49:145][  0]LightingResults: New page: Lighting Build
[2021.03.18-11.16.49:146][  0]LogWorld: UWorld::CleanupWorld for Untitled, bSessionEnded=true, bCleanupResources=true
[2021.03.18-11.16.49:146][  0]LogSlate: InvalidateAllWidgets triggered.  All widgets were invalidated
[2021.03.18-11.16.49:146][  0]MapCheck: New page: Map Check
[2021.03.18-11.16.49:146][  0]LightingResults: New page: Lighting Build
[2021.03.18-11.16.49:158][  0]LogUObjectHash: Compacting FUObjectHashTables data took   0.58ms
[2021.03.18-11.16.49:198][  0]LogAudio: Display: Audio Device (ID: 1) registered with world 'Main'.
[2021.03.18-11.16.49:199][  0]LogAIModule: Creating AISystem for world Main
[2021.03.18-11.16.49:204][  0]LogEditorServer: Finished looking for orphan Actors (0.000 secs)
[2021.03.18-11.16.49:209][  0]LogUObjectHash: Compacting FUObjectHashTables data took   0.74ms
[2021.03.18-11.16.49:209][  0]Cmd: MAP CHECKDEP NOCLEARLOG
[2021.03.18-11.16.49:209][  0]MapCheck: Map check complete: 0 Error(s), 0 Warning(s), took 0,15ms to complete.
[2021.03.18-11.16.49:209][  0]LogFileHelpers: Loading map 'Main' took 0.065
[2021.03.18-11.16.49:211][  0]LogUnrealEdMisc: Total Editor Startup Time, took 5.061
[2021.03.18-11.16.49:363][  0]LogSlate: Updating window title bar state: overlay mode, drag disabled, window buttons hidden, title bar hidden
[2021.03.18-11.16.49:368][  0]LogSlate: Updating window title bar state: overlay mode, drag disabled, window buttons hidden, title bar hidden
[2021.03.18-11.16.49:373][  0]LogSlate: Updating window title bar state: overlay mode, drag disabled, window buttons hidden, title bar hidden
[2021.03.18-11.16.49:378][  0]LogSlate: Updating window title bar state: overlay mode, drag disabled, window buttons hidden, title bar hidden
[2021.03.18-11.16.49:389][  0]LogNativeClassHierarchy: Verbose: Native class hierarchy populated in 0.0071 seconds. Added 3605 classes and 861 folders.
[2021.03.18-11.16.49:392][  0]LogNativeClassHierarchy: Verbose: Native class hierarchy updated for 'WidgetCarousel' in 0.0002 seconds. Added 0 classes and 0 folders.
[2021.03.18-11.16.49:393][  0]LogPakFile: PakFile PrimaryIndexSize=187
[2021.03.18-11.16.49:393][  0]LogPakFile: PakFile PathHashIndexSize=101
[2021.03.18-11.16.49:393][  0]LogPakFile: PakFile FullDirectoryIndexSize=148
[2021.03.18-11.16.49:393][  0]LogPakFile: OnPakFileMounted2Time == 0.000008
[2021.03.18-11.16.49:393][  0]LogPakFile: PakFile PrimaryIndexSize=189
[2021.03.18-11.16.49:394][  0]LogPakFile: PakFile PathHashIndexSize=101
[2021.03.18-11.16.49:394][  0]LogPakFile: PakFile FullDirectoryIndexSize=152
[2021.03.18-11.16.49:394][  0]LogPakFile: OnPakFileMounted2Time == 0.000010
[2021.03.18-11.16.49:394][  0]LogPakFile: PakFile PrimaryIndexSize=191
[2021.03.18-11.16.49:394][  0]LogPakFile: PakFile PathHashIndexSize=101
[2021.03.18-11.16.49:394][  0]LogPakFile: PakFile FullDirectoryIndexSize=160
[2021.03.18-11.16.49:394][  0]LogPakFile: OnPakFileMounted2Time == 0.000011
[2021.03.18-11.16.49:395][  0]LogPakFile: PakFile PrimaryIndexSize=185
[2021.03.18-11.16.49:395][  0]LogPakFile: PakFile PathHashIndexSize=101
[2021.03.18-11.16.49:395][  0]LogPakFile: PakFile FullDirectoryIndexSize=148
[2021.03.18-11.16.49:395][  0]LogPakFile: OnPakFileMounted2Time == 0.000012
[2021.03.18-11.16.49:395][  0]LogPakFile: PakFile PrimaryIndexSize=190
[2021.03.18-11.16.49:395][  0]LogPakFile: PakFile PathHashIndexSize=101
[2021.03.18-11.16.49:395][  0]LogPakFile: PakFile FullDirectoryIndexSize=154
[2021.03.18-11.16.49:395][  0]LogPakFile: OnPakFileMounted2Time == 0.000014
[2021.03.18-11.16.49:396][  0]LogPakFile: PakFile PrimaryIndexSize=192
[2021.03.18-11.16.49:396][  0]LogPakFile: PakFile PathHashIndexSize=101
[2021.03.18-11.16.49:396][  0]LogPakFile: PakFile FullDirectoryIndexSize=158
[2021.03.18-11.16.49:396][  0]LogPakFile: OnPakFileMounted2Time == 0.000015
[2021.03.18-11.16.49:396][  0]LogPakFile: PakFile PrimaryIndexSize=182
[2021.03.18-11.16.49:396][  0]LogPakFile: PakFile PathHashIndexSize=101
[2021.03.18-11.16.49:397][  0]LogPakFile: PakFile FullDirectoryIndexSize=138
[2021.03.18-11.16.49:397][  0]LogPakFile: OnPakFileMounted2Time == 0.000016
[2021.03.18-11.16.49:397][  0]LogPakFile: PakFile PrimaryIndexSize=184
[2021.03.18-11.16.49:397][  0]LogPakFile: PakFile PathHashIndexSize=101
[2021.03.18-11.16.49:397][  0]LogPakFile: PakFile FullDirectoryIndexSize=142
[2021.03.18-11.16.49:397][  0]LogPakFile: OnPakFileMounted2Time == 0.000017
[2021.03.18-11.16.49:398][  0]LogPakFile: PakFile PrimaryIndexSize=188
[2021.03.18-11.16.49:398][  0]LogPakFile: PakFile PathHashIndexSize=101
[2021.03.18-11.16.49:398][  0]LogPakFile: PakFile FullDirectoryIndexSize=150
[2021.03.18-11.16.49:398][  0]LogPakFile: OnPakFileMounted2Time == 0.000018
[2021.03.18-11.16.49:398][  0]LogPakFile: PakFile PrimaryIndexSize=182
[2021.03.18-11.16.49:398][  0]LogPakFile: PakFile PathHashIndexSize=101
[2021.03.18-11.16.49:398][  0]LogPakFile: PakFile FullDirectoryIndexSize=138
[2021.03.18-11.16.49:398][  0]LogPakFile: OnPakFileMounted2Time == 0.000019
[2021.03.18-11.16.49:399][  0]LogPakFile: PakFile PrimaryIndexSize=184
[2021.03.18-11.16.49:399][  0]LogPakFile: PakFile PathHashIndexSize=101
[2021.03.18-11.16.49:399][  0]LogPakFile: PakFile FullDirectoryIndexSize=142
[2021.03.18-11.16.49:399][  0]LogPakFile: OnPakFileMounted2Time == 0.000020
[2021.03.18-11.16.49:399][  0]LogPakFile: PakFile PrimaryIndexSize=183
[2021.03.18-11.16.49:399][  0]LogPakFile: PakFile PathHashIndexSize=101
[2021.03.18-11.16.49:399][  0]LogPakFile: PakFile FullDirectoryIndexSize=140
[2021.03.18-11.16.49:399][  0]LogPakFile: OnPakFileMounted2Time == 0.000022
[2021.03.18-11.16.49:400][  0]LogPakFile: PakFile PrimaryIndexSize=185
[2021.03.18-11.16.49:400][  0]LogPakFile: PakFile PathHashIndexSize=101
[2021.03.18-11.16.49:400][  0]LogPakFile: PakFile FullDirectoryIndexSize=144
[2021.03.18-11.16.49:400][  0]LogPakFile: OnPakFileMounted2Time == 0.000023
[2021.03.18-11.16.49:401][  0]LogPakFile: PakFile PrimaryIndexSize=188
[2021.03.18-11.16.49:401][  0]LogPakFile: PakFile PathHashIndexSize=101
[2021.03.18-11.16.49:401][  0]LogPakFile: PakFile FullDirectoryIndexSize=150
[2021.03.18-11.16.49:401][  0]LogPakFile: OnPakFileMounted2Time == 0.000024
[2021.03.18-11.16.49:401][  0]LogPakFile: PakFile PrimaryIndexSize=190
[2021.03.18-11.16.49:401][  0]LogPakFile: PakFile PathHashIndexSize=101
[2021.03.18-11.16.49:401][  0]LogPakFile: PakFile FullDirectoryIndexSize=154
[2021.03.18-11.16.49:401][  0]LogPakFile: OnPakFileMounted2Time == 0.000025
[2021.03.18-11.16.49:402][  0]LogPakFile: PakFile PrimaryIndexSize=187
[2021.03.18-11.16.49:402][  0]LogPakFile: PakFile PathHashIndexSize=101
[2021.03.18-11.16.49:402][  0]LogPakFile: PakFile FullDirectoryIndexSize=148
[2021.03.18-11.16.49:402][  0]LogPakFile: OnPakFileMounted2Time == 0.000026
[2021.03.18-11.16.49:402][  0]LogPakFile: PakFile PrimaryIndexSize=189
[2021.03.18-11.16.49:402][  0]LogPakFile: PakFile PathHashIndexSize=101
[2021.03.18-11.16.49:402][  0]LogPakFile: PakFile FullDirectoryIndexSize=152
[2021.03.18-11.16.49:403][  0]LogPakFile: OnPakFileMounted2Time == 0.000028
[2021.03.18-11.16.49:403][  0]LogPakFile: PakFile PrimaryIndexSize=183
[2021.03.18-11.16.49:403][  0]LogPakFile: PakFile PathHashIndexSize=101
[2021.03.18-11.16.49:403][  0]LogPakFile: PakFile FullDirectoryIndexSize=140
[2021.03.18-11.16.49:403][  0]LogPakFile: OnPakFileMounted2Time == 0.000029
[2021.03.18-11.16.49:404][  0]LogPakFile: PakFile PrimaryIndexSize=185
[2021.03.18-11.16.49:404][  0]LogPakFile: PakFile PathHashIndexSize=101
[2021.03.18-11.16.49:404][  0]LogPakFile: PakFile FullDirectoryIndexSize=144
[2021.03.18-11.16.49:404][  0]LogPakFile: OnPakFileMounted2Time == 0.000030
[2021.03.18-11.16.49:404][  0]LogPakFile: PakFile PrimaryIndexSize=185
[2021.03.18-11.16.49:404][  0]LogPakFile: PakFile PathHashIndexSize=101
[2021.03.18-11.16.49:404][  0]LogPakFile: PakFile FullDirectoryIndexSize=144
[2021.03.18-11.16.49:404][  0]LogPakFile: OnPakFileMounted2Time == 0.000031
[2021.03.18-11.16.49:405][  0]LogPakFile: PakFile PrimaryIndexSize=187
[2021.03.18-11.16.49:405][  0]LogPakFile: PakFile PathHashIndexSize=101
[2021.03.18-11.16.49:405][  0]LogPakFile: PakFile FullDirectoryIndexSize=148
[2021.03.18-11.16.49:405][  0]LogPakFile: OnPakFileMounted2Time == 0.000033
[2021.03.18-11.16.49:405][  0]LogPakFile: PakFile PrimaryIndexSize=183
[2021.03.18-11.16.49:405][  0]LogPakFile: PakFile PathHashIndexSize=101
[2021.03.18-11.16.49:405][  0]LogPakFile: PakFile FullDirectoryIndexSize=140
[2021.03.18-11.16.49:406][  0]LogPakFile: OnPakFileMounted2Time == 0.000034
[2021.03.18-11.16.49:406][  0]LogPakFile: PakFile PrimaryIndexSize=186
[2021.03.18-11.16.49:406][  0]LogPakFile: PakFile PathHashIndexSize=101
[2021.03.18-11.16.49:406][  0]LogPakFile: PakFile FullDirectoryIndexSize=146
[2021.03.18-11.16.49:406][  0]LogPakFile: OnPakFileMounted2Time == 0.000035
[2021.03.18-11.16.49:407][  0]LogPakFile: PakFile PrimaryIndexSize=188
[2021.03.18-11.16.49:407][  0]LogPakFile: PakFile PathHashIndexSize=101
[2021.03.18-11.16.49:407][  0]LogPakFile: PakFile FullDirectoryIndexSize=150
[2021.03.18-11.16.49:407][  0]LogPakFile: OnPakFileMounted2Time == 0.000037
[2021.03.18-11.16.49:407][  0]LogPakFile: PakFile PrimaryIndexSize=185
[2021.03.18-11.16.49:407][  0]LogPakFile: PakFile PathHashIndexSize=101
[2021.03.18-11.16.49:408][  0]LogPakFile: PakFile FullDirectoryIndexSize=144
[2021.03.18-11.16.49:408][  0]LogPakFile: OnPakFileMounted2Time == 0.000038
[2021.03.18-11.16.49:408][  0]LogPakFile: PakFile PrimaryIndexSize=192
[2021.03.18-11.16.49:408][  0]LogPakFile: PakFile PathHashIndexSize=101
[2021.03.18-11.16.49:408][  0]LogPakFile: PakFile FullDirectoryIndexSize=158
[2021.03.18-11.16.49:408][  0]LogPakFile: OnPakFileMounted2Time == 0.000039
[2021.03.18-11.16.49:433][  0]LogNativeClassHierarchy: Verbose: Native class hierarchy updated for 'AddContentDialog' in 0.0002 seconds. Added 0 classes and 0 folders.
[2021.03.18-11.16.49:434][  0]LogNativeClassHierarchy: Verbose: Native class hierarchy updated for 'SceneOutliner' in 0.0002 seconds. Added 2 classes and 0 folders.
[2021.03.18-11.16.49:454][  0]LogNativeClassHierarchy: Verbose: Native class hierarchy updated for 'HierarchicalLODOutliner' in 0.0002 seconds. Added 0 classes and 0 folders.
[2021.03.18-11.16.49:454][  0]LogLoad: (Engine Initialization) Total time: 5.30 seconds
[2021.03.18-11.16.49:454][  0]LogLoad: (Engine Initialization) Total Blueprint compile time: 0.00 seconds
[2021.03.18-11.16.49:454][  0]LogInit: First time updating LLM stats...
[2021.03.18-11.16.49:481][  0]LogAssetRegistry: Asset discovery search completed in 2.5887 seconds
[2021.03.18-11.16.49:483][  0]LogCollectionManager: Fixed up redirectors for 0 collections in 0.000003 seconds (updated 0 objects)
[2021.03.18-11.16.49:500][  0]LogContentStreaming: Texture pool size now 1000 MB
[2021.03.18-11.16.49:504][  0]LogSlate: Took 0.000100 seconds to synchronously load lazily loaded font '../../../Engine/Content/Slate/Fonts/Roboto-Regular.ttf' (155K)
[2021.03.18-11.16.49:505][  0]LogSlate: Took 0.000113 seconds to synchronously load lazily loaded font '../../../Engine/Content/Slate/Fonts/Roboto-Bold.ttf' (160K)
[2021.03.18-11.16.49:509][  0]LogSlate: Took 0.000087 seconds to synchronously load lazily loaded font '../../../Engine/Content/Editor/Slate/Fonts/FontAwesome.ttf' (139K)
[2021.03.18-11.16.49:625][  0]LogSlate: Took 0.000090 seconds to synchronously load lazily loaded font '../../../Engine/Content/Slate/Fonts/Roboto-Light.ttf' (167K)
[2021.03.18-11.16.49:634][  1]LogRenderer: Reallocating scene render targets to support 804x360 Format 10 NumSamples 1 (Frame:1).
[2021.03.18-11.16.59:277][108]LogRenderer: Reallocating scene render targets to support 1208x572 Format 10 NumSamples 1 (Frame:1095).
[2021.03.18-11.17.04:712][577]LogSlate: Only BGRA pngs, bmps or icos are supported in by External Image Picker
